\relax 
\citation{L13}
\citation{L14}
\citation{Textbook}
\citation{L5}
\citation{L7,L8,L9}
\@writefile{toc}{\contentsline {section}{\numberline {I}Introduction}{1}}
\@writefile{toc}{\contentsline {section}{\numberline {II}Requirements of Arithematic Procedures}{1}}
\@writefile{toc}{\contentsline {section}{\numberline {III}Simulator Installation and Setup}{1}}
\@writefile{toc}{\contentsline {section}{\numberline {IV}Overall Design and Implementation of Procedures}{1}}
\@writefile{toc}{\contentsline {subsection}{\numberline {\unhbox \voidb@x \hbox {IV-A}}Normal Arithematic Operations}{2}}
\newlabel{code:normal}{{1}{2}}
\newlabel{cref@code:normal}{{[listing][1][]1}{2}}
\@writefile{lol}{\contentsline {lstlisting}{\numberline {1}au\_normal:}{2}}
\@writefile{toc}{\contentsline {subsection}{\numberline {\unhbox \voidb@x \hbox {IV-B}}Logical Arithematic Operations}{2}}
\@writefile{lol}{\contentsline {lstlisting}{Code/au\textendash logical.asm}{2}}
\@writefile{toc}{\contentsline {section}{\numberline {V}Common Procedures and Macros}{2}}
\@writefile{toc}{\contentsline {subsection}{\numberline {\unhbox \voidb@x \hbox {V-A}}Macro `extract\_nth\_bit'}{2}}
\newlabel{code:extract-nbit}{{2}{2}}
\newlabel{cref@code:extract-nbit}{{[listing][2][]2}{2}}
\@writefile{lol}{\contentsline {lstlisting}{\numberline {2}extract\_nth\_bit:}{2}}
\@writefile{toc}{\contentsline {subsection}{\numberline {\unhbox \voidb@x \hbox {V-B}}Macro `insert\_to\_nth\_bit'}{2}}
\citation{L3}
\@writefile{lot}{\contentsline {table}{\numberline {I}{\ignorespaces Summary of Procedure Calls for ALU Logical Implementation}}{3}}
\newlabel{table:summary}{{I}{3}}
\newlabel{cref@table:summary}{{[table][1][]I}{3}}
\newlabel{code:insert-nbit}{{3}{3}}
\newlabel{cref@code:insert-nbit}{{[listing][3][]3}{3}}
\@writefile{lol}{\contentsline {lstlisting}{\numberline {3}insert\_to\_nth\_bit:}{3}}
\@writefile{toc}{\contentsline {subsection}{\numberline {\unhbox \voidb@x \hbox {V-C}}Procedure `bit\_replicator'}{3}}
\newlabel{code:bit-replicator}{{4}{3}}
\newlabel{cref@code:bit-replicator}{{[listing][4][]4}{3}}
\@writefile{lol}{\contentsline {lstlisting}{\numberline {4}bit\_replicator}{3}}
\@writefile{toc}{\contentsline {subsection}{\numberline {\unhbox \voidb@x \hbox {V-D}}Procedure `twos\_complement'}{3}}
\newlabel{code:2scomplement}{{5}{3}}
\newlabel{cref@code:2scomplement}{{[listing][5][]5}{3}}
\@writefile{lol}{\contentsline {lstlisting}{\numberline {5}twos\_complement}{3}}
\citation{L13,L14}
\citation{L16}
\citation{L13,L14}
\@writefile{toc}{\contentsline {subsection}{\numberline {\unhbox \voidb@x \hbox {V-E}}Procedure 'twos\_complement\_if\_neg'}{4}}
\newlabel{code:2scomplementifneg}{{6}{4}}
\newlabel{cref@code:2scomplementifneg}{{[listing][6][]6}{4}}
\@writefile{lol}{\contentsline {lstlisting}{\numberline {6}twos\_complement\_if\_neg}{4}}
\@writefile{toc}{\contentsline {subsection}{\numberline {\unhbox \voidb@x \hbox {V-F}}Procedure `twos\_complement\_64bit'}{4}}
\newlabel{code:2scomplement64bit}{{7}{4}}
\newlabel{cref@code:2scomplement64bit}{{[listing][7][]7}{4}}
\@writefile{lol}{\contentsline {lstlisting}{\numberline {7}twos\_complement\_64bit}{4}}
\@writefile{toc}{\contentsline {section}{\numberline {VI}Logical Addition/Subtraction}{4}}
\@writefile{toc}{\contentsline {subsection}{\numberline {\unhbox \voidb@x \hbox {VI-A}}Binary Addition}{4}}
\@writefile{lof}{\contentsline {figure}{\numberline {1}{\ignorespaces Binary Bit-wise addition scheme}}{4}}
\newlabel{f:binaryAdd}{{1}{4}}
\newlabel{cref@f:binaryAdd}{{[figure][1][]1}{4}}
\@writefile{toc}{\contentsline {subsection}{\numberline {\unhbox \voidb@x \hbox {VI-B}}Design \& Diagrams for Addition/Subtraction}{4}}
\@writefile{lof}{\contentsline {figure}{\numberline {2}{\ignorespaces Truth table and logic circuit for half adder}}{5}}
\newlabel{f:halfAdd}{{2}{5}}
\newlabel{cref@f:halfAdd}{{[figure][2][]2}{5}}
\@writefile{lof}{\contentsline {figure}{\numberline {3}{\ignorespaces Truth table of full adder (A) and K-map (B). Implementation of full adder with two half adders and an OR gate}}{5}}
\newlabel{f:fullAdd}{{3}{5}}
\newlabel{cref@f:fullAdd}{{[figure][3][]3}{5}}
\@writefile{toc}{\contentsline {subsection}{\numberline {\unhbox \voidb@x \hbox {VI-C}}Code Snippet for Logical Addition}{5}}
\@writefile{lof}{\contentsline {figure}{\numberline {4}{\ignorespaces Simplified Combined Adder/Subtractor by XOR gate}}{5}}
\newlabel{f:addSubCombo}{{4}{5}}
\newlabel{cref@f:addSubCombo}{{[figure][4][]4}{5}}
\@writefile{lof}{\contentsline {figure}{\numberline {5}{\ignorespaces Flowchart for add\_sub\_logical procedure}}{5}}
\newlabel{f:addFlow}{{5}{5}}
\newlabel{cref@f:addFlow}{{[figure][5][]5}{5}}
\newlabel{code:commonAddSub}{{8}{5}}
\newlabel{cref@code:commonAddSub}{{[listing][8][]8}{5}}
\@writefile{lol}{\contentsline {lstlisting}{\numberline {8}add\_sub\_logical}{5}}
\@writefile{lol}{\contentsline {lstlisting}{\numberline {9}add\_logical}{6}}
\@writefile{toc}{\contentsline {subsection}{\numberline {\unhbox \voidb@x \hbox {VI-D}}Code Snippet for Logical Subtraction}{6}}
\@writefile{lol}{\contentsline {lstlisting}{\numberline {10}sub\_logical}{6}}
\@writefile{toc}{\contentsline {section}{\numberline {VII}Logical Multiplication}{6}}
\@writefile{toc}{\contentsline {subsection}{\numberline {\unhbox \voidb@x \hbox {VII-A}}Binary Addition}{6}}
\@writefile{lof}{\contentsline {figure}{\numberline {6}{\ignorespaces Flowchart for multiplication procedure}}{6}}
\newlabel{f:flowchart-mul}{{6}{6}}
\newlabel{cref@f:flowchart-mul}{{[figure][6][]6}{6}}
\@writefile{toc}{\contentsline {subsection}{\numberline {\unhbox \voidb@x \hbox {VII-B}}Design \& Diagrams for Multiplication}{7}}
\@writefile{lof}{\contentsline {figure}{\numberline {7}{\ignorespaces Flowchart for multiplication procedure}}{7}}
\newlabel{f:flowchart-replicator}{{7}{7}}
\newlabel{cref@f:flowchart-replicator}{{[figure][7][]7}{7}}
\@writefile{lof}{\contentsline {figure}{\numberline {8}{\ignorespaces Logic of unsigned multiplication}}{7}}
\@writefile{toc}{\contentsline {subsection}{\numberline {\unhbox \voidb@x \hbox {VII-C}}Code Snippet for Unsigned Multiplication}{7}}
\@writefile{lof}{\contentsline {figure}{\numberline {9}{\ignorespaces Logic of signed multiplication}}{7}}
\@writefile{lol}{\contentsline {lstlisting}{\numberline {11}mul\_unsigned}{7}}
\@writefile{toc}{\contentsline {subsection}{\numberline {\unhbox \voidb@x \hbox {VII-D}}Code Snippet for Signed Multiplication}{8}}
\@writefile{lol}{\contentsline {lstlisting}{\numberline {12}mul\_signed}{8}}
\@writefile{toc}{\contentsline {section}{\numberline {VIII}Logical Division}{9}}
\@writefile{toc}{\contentsline {subsection}{\numberline {\unhbox \voidb@x \hbox {VIII-A}}Binary Division}{9}}
\@writefile{lof}{\contentsline {figure}{\numberline {10}{\ignorespaces Flowchart for division procedure \& Binary Division}}{9}}
\newlabel{f:divFlow}{{10}{9}}
\newlabel{cref@f:divFlow}{{[figure][10][]10}{9}}
\@writefile{toc}{\contentsline {subsection}{\numberline {\unhbox \voidb@x \hbox {VIII-B}}Design \& Diagrams for Division}{9}}
\@writefile{lof}{\contentsline {figure}{\numberline {11}{\ignorespaces Logic of unsigned division}}{9}}
\newlabel{f:unsignedDiv}{{11}{9}}
\newlabel{cref@f:unsignedDiv}{{[figure][11][]11}{9}}
\@writefile{lof}{\contentsline {figure}{\numberline {12}{\ignorespaces Logic of signed multiplication}}{9}}
\newlabel{f:signedDiv}{{12}{9}}
\newlabel{cref@f:signedDiv}{{[figure][12][]12}{9}}
\@writefile{toc}{\contentsline {subsection}{\numberline {\unhbox \voidb@x \hbox {VIII-C}}Code Snippet for Unsigned Division}{9}}
\newlabel{code:divUnsigned}{{13}{9}}
\newlabel{cref@code:divUnsigned}{{[listing][13][]13}{9}}
\@writefile{lol}{\contentsline {lstlisting}{\numberline {13}div\_unsigned}{9}}
\@writefile{toc}{\contentsline {subsection}{\numberline {\unhbox \voidb@x \hbox {VIII-D}}Code Snippet for Signed Division}{10}}
\newlabel{divSigned}{{14}{10}}
\newlabel{cref@divSigned}{{[listing][14][]14}{10}}
\@writefile{lol}{\contentsline {lstlisting}{\numberline {14}div\_signed}{10}}
\bibcite{L3}{1}
\@writefile{toc}{\contentsline {section}{\numberline {IX}Testing and Result}{11}}
\@writefile{toc}{\contentsline {subsection}{\numberline {\unhbox \voidb@x \hbox {IX-A}}Unit Testing}{11}}
\@writefile{toc}{\contentsline {subsection}{\numberline {\unhbox \voidb@x \hbox {IX-B}}Source of Errors}{11}}
\@writefile{toc}{\contentsline {subsection}{\numberline {\unhbox \voidb@x \hbox {IX-C}}Final Result}{11}}
\@writefile{lof}{\contentsline {figure}{\numberline {13}{\ignorespaces Test restuls}}{11}}
\@writefile{toc}{\contentsline {section}{\numberline {X}Conclusion}{11}}
\bibcite{L5}{2}
\bibcite{L6}{3}
\bibcite{L7}{4}
\bibcite{L8}{5}
\bibcite{L9}{6}
\bibcite{Textbook}{7}
\bibcite{L12}{8}
\bibcite{L13}{9}
\bibcite{L14}{10}
\bibcite{L15}{11}
\bibcite{L16}{12}
\bibcite{L17}{13}
\bibcite{L18}{14}
\bibcite{L19}{15}
\bibcite{L20}{16}
\@writefile{toc}{\contentsline {section}{References}{12}}
